processor_6809_and_6309_compatible_core/sim/dump.vcd
$date
	Fri Jan 23 08:52:46 2015
$end
$version
	Icarus Verilog
$end
$timescale
	1ns
$end
$scope module tb $end
$var wire 16 ! addr [15:0] $end
$var wire 16 " addr_o [15:0] $end
$var wire 8 # data_i [7:0] $end
$var wire 8 $ data_o [7:0] $end
$var wire 8 % data_o_o [7:0] $end
$var wire 1 & oe $end
$var wire 1 ' we $end
$var reg 1 ( clk $end
$var reg 1 ) firq $end
$var reg 1 * irq $end
$var reg 1 + nmi $end
$var reg 1 , reset $end
$scope module cpu $end
$var wire 8 - alu_o_CCR [7:0] $end
$var wire 16 . alu_o_result [15:0] $end
$var wire 16 / cpu_addr_o [15:0] $end
$var wire 1 0 cpu_clk $end
$var wire 8 1 cpu_data_i [7:0] $end
$var wire 8 2 cpu_data_o [7:0] $end
$var wire 1 3 cpu_dtack_i $end
$var wire 1 4 cpu_firq_n $end
$var wire 1 5 cpu_irq_n $end
$var wire 1 6 cpu_nmi_n $end
$var wire 1 & cpu_oe_o $end
$var wire 1 7 cpu_reset $end
$var wire 6 8 cpu_state_o [5:0] $end
$var wire 1 ' cpu_we_o $end
$var wire 1 9 debug_clk $end
$var wire 1 : debug_data_o $end
$var wire 2 ; dec_lo_dest_memtype [1:0] $end
$var wire 4 < dec_lo_dest_reg_addr [3:0] $end
$var wire 4 = dec_lo_left_path_addr [3:0] $end
$var wire 2 > dec_lo_left_path_memtype [1:0] $end
$var wire 4 ? dec_lo_right_path_addr [3:0] $end
$var wire 2 @ dec_lo_right_path_memtype [1:0] $end
$var wire 5 A dec_o_alu_opcode [4:0] $end
$var wire 1 B dec_o_alu_size $end
$var wire 1 C dec_o_cond_taken $end
$var wire 2 D dec_o_dest_memtype [1:0] $end
$var wire 1 E dec_o_ea_indirect $end
$var wire 1 F dec_o_ea_ofs16 $end
$var wire 1 G dec_o_ea_ofs5 $end
$var wire 1 H dec_o_ea_ofs8 $end
$var wire 1 I dec_o_ea_wpost $end
$var wire 4 J dec_o_eabase [3:0] $end
$var wire 4 K dec_o_eaidx [3:0] $end
$var wire 2 L dec_o_left_path_memtype [1:0] $end
$var wire 1 M dec_o_operand_read $end
$var wire 1 N dec_o_operand_write $end
$var wire 3 O dec_o_p1_mode [2:0] $end
$var wire 2 P dec_o_right_path_memtype [1:0] $end
$var wire 1 Q dec_o_source_size $end
$var wire 1 R dec_o_use_s $end
$var wire 1 S dec_o_wdest $end
$var wire 1 T dec_o_write_flags $end
$var wire 1 U k_firq_req $end
$var wire 1 V k_irq_req $end
$var wire 1 W k_nmi_req $end
$var wire 1 X k_reset $end
$var wire 1 Y op_CWAI $end
$var wire 1 Z op_EXG $end
$var wire 1 [ op_JMP $end
$var wire 1 \ op_JSR $end
$var wire 1 ] op_LEA $end
$var wire 1 ^ op_MUL $end
$var wire 1 _ op_PULL $end
$var wire 1 ` op_PUSH $end
$var wire 1 a op_RTI $end
$var wire 1 b op_RTS $end
$var wire 1 c op_SWI $end
$var wire 1 d op_SYNC $end
$var wire 1 e op_TFR $end
$var wire 8 f regs_o_CCR [7:0] $end
$var wire 8 g regs_o_dp [7:0] $end
$var wire 16 h regs_o_eamem_addr [15:0] $end
$var wire 16 i regs_o_left_path_data [15:0] $end
$var wire 16 j regs_o_pc [15:0] $end
$var wire 16 k regs_o_right_path_data [15:0] $end
$var wire 16 l regs_o_su [15:0] $end
$var reg 4 m datamux_o_alu_in_left_path_addr [3:0] $end
$var reg 16 n datamux_o_alu_in_left_path_data [15:0] $end
$var reg 16 o datamux_o_alu_in_right_path_data [15:0] $end
$var reg 16 p datamux_o_dest [15:0] $end
$var reg 4 q datamux_o_dest_reg_addr [3:0] $end
$var reg 1 r k_clear_e $end
$var reg 16 s k_cpu_addr [15:0] $end
$var reg 8 t k_cpu_data_o [7:0] $end
$var reg 1 u k_cpu_oe $end
$var reg 1 v k_cpu_we $end
$var reg 1 w k_dec_su $end
$var reg 8 x k_eahi [7:0] $end
$var reg 8 y k_ealo [7:0] $end
$var reg 1 z k_exception_process $end
$var reg 1 { k_force_read_word_from_mem $end
$var reg 1 | k_inc_pc $end
$var reg 1 } k_inc_su $end
$var reg 8 ~ k_ind_ea [7:0] $end
$var reg 1 !" k_indirect_loaded $end
$var reg 3 "" k_mem_state [2:0] $end
$var reg 8 #" k_memhi [7:0] $end
$var reg 8 $" k_memlo [7:0] $end
$var reg 1 %" k_mul_cnt $end
$var reg 16 &" k_new_pc [15:0] $end
$var reg 8 '" k_ofshi [7:0] $end
$var reg 8 (" k_ofslo [7:0] $end
$var reg 8 )" k_opcode [7:0] $end
$var reg 1 *" k_p2_valid $end
$var reg 1 +" k_p3_valid $end
$var reg 8 ," k_postbyte [7:0] $end
$var reg 4 -" k_pp_active_reg [3:0] $end
$var reg 8 ." k_pp_regs [7:0] $end
$var reg 3 /" k_reg_firq [2:0] $end
$var reg 3 0" k_reg_irq [2:0] $end
$var reg 3 1" k_reg_nmi [2:0] $end
$var reg 1 2" k_set_e $end
$var reg 1 3" k_write_dest $end
$var reg 1 4" k_write_exg $end
$var reg 1 5" k_write_pc $end
$var reg 1 6" k_write_post_incdec $end
$var reg 1 7" k_write_tfr $end
$var reg 6 8" next_mem_state [5:0] $end
$var reg 6 9" next_push_state [5:0] $end
$var reg 6 :" next_state [5:0] $end
$var reg 6 ;" state [5:0] $end
$scope module alu $end
$var wire 8 <" CCR [7:0] $end
$var wire 16 =" a_in [15:0] $end
$var wire 16 >" b_in [15:0] $end
$var wire 4 ?" ccr16_out [3:0] $end
$var wire 8 @" ccr8_out [7:0] $end
$var wire 1 0 clk_in $end
$var wire 5 A" opcode_in [4:0] $end
$var wire 16 B" q16_mul [15:0] $end
$var wire 16 C" q16_out [15:0] $end
$var wire 8 D" q8_out [7:0] $end
$var wire 1 B sz_in $end
$var reg 8 E" CCRo [7:0] $end
$var reg 16 F" q_out [15:0] $end
$var reg 16 G" ra_in [15:0] $end
$var reg 16 H" rb_in [15:0] $end
$var reg 5 I" rop_in [4:0] $end
$scope module mulu $end
$var wire 8 J" a [7:0] $end
$var wire 8 K" b [7:0] $end
$var wire 1 0 clk_in $end
$var wire 16 L" q [15:0] $end
$var reg 16 M" pipe0 [15:0] $end
$var reg 16 N" pipe1 [15:0] $end
$upscope $end
$scope module alu8 $end
$var wire 8 O" CCR [7:0] $end
$var wire 8 P" a_in [7:0] $end
$var wire 1 Q" arith_c $end
$var wire 1 R" arith_h $end
$var wire 8 S" arith_q [7:0] $end
$var wire 1 T" arith_v $end
$var wire 8 U" b_in [7:0] $end
$var wire 1 V" c_in $end
$var wire 1 W" ccom8_r $end
$var wire 1 X" cdaa8_r $end
$var wire 1 0 clk_in $end
$var wire 1 Y" cneg8_r $end
$var wire 8 Z" com8_r [7:0] $end
$var wire 8 [" com8_w [7:0] $end
$var wire 4 \" daa8h_r [3:0] $end
$var wire 8 ]" daa_p0_r [7:0] $end
$var wire 1 ^" h_in $end
$var wire 8 _" logic_q [7:0] $end
$var wire 1 `" n_in $end
$var wire 8 a" neg8_r [7:0] $end
$var wire 8 b" neg8_w [7:0] $end
$var wire 5 c" opcode_in [4:0] $end
$var wire 1 d" shift_c $end
$var wire 8 e" shift_q [7:0] $end
$var wire 1 f" shift_v $end
$var wire 1 g" v_in $end
$var wire 1 h" vcom8_r $end
$var wire 1 i" vneg8_r $end
$var wire 1 j" z_in $end
$var reg 8 k" CCRo [7:0] $end
$var reg 8 l" alu8_b_in [7:0] $end
$var reg 1 m" c8 $end
$var reg 1 n" h8 $end
$var reg 8 o" q8 [7:0] $end
$var reg 8 p" q_out [7:0] $end
$var reg 1 q" v8 $end
$scope module l8 $end
$var wire 8 r" a_in [7:0] $end
$var wire 8 s" b_in [7:0] $end
$var wire 2 t" opcode_in [1:0] $end
$var reg 8 u" q_out [7:0] $end
$upscope $end
$scope module a8 $end
$var wire 8 v" a_in [7:0] $end
$var wire 8 w" b_in [7:0] $end
$var wire 1 x" carry $end
$var wire 1 V" carry_in $end
$var wire 1 ^" half_c_in $end
$var wire 2 y" opcode_in [1:0] $end
$var reg 1 z" carry_out $end
$var reg 1 {" half_c_out $end
$var reg 1 |" overflow_out $end
$var reg 8 }" q_out [7:0] $end
$upscope $end
$scope module s8 $end
$var wire 8 ~" a_in [7:0] $end
$var wire 8 !# b_in [7:0] $end
$var wire 1 V" carry_in $end
$var wire 1 d" carry_out $end
$var wire 3 "# opcode_in [2:0] $end
$var wire 1 g" overflow_in $end
$var reg 1 ## overflow_out $end
$var reg 8 $# q_out [7:0] $end
$upscope $end
$upscope $end
$scope module alu16 $end
$var wire 8 %# CCR [7:0] $end
$var wire 16 &# a_in [15:0] $end
$var wire 1 '# arith_c $end
$var wire 16 (# arith_q [15:0] $end
$var wire 1 )# arith_v $end
$var wire 16 *# b_in [15:0] $end
$var wire 1 +# c_in $end
$var wire 1 0 clk_in $end
$var wire 1 ,# n_in $end
$var wire 5 -# opcode_in [4:0] $end
$var wire 16 .# q_mul_in [15:0] $end
$var wire 1 /# v_in $end
$var wire 1 0# z_in $end
$var reg 4 1# CCRo [3:0] $end
$var reg 1 2# c16 $end
$var reg 1 3# n16 $end
$var reg 16 4# q16 [15:0] $end
$var reg 16 5# q_out [15:0] $end
$var reg 1 6# reg_n_in $end
$var reg 1 7# reg_z_in $end
$var reg 1 8# v16 $end
$var reg 1 9# z16 $end
$scope module a16 $end
$var wire 16 :# a_in [15:0] $end
$var wire 16 ;# b_in [15:0] $end
$var wire 1 +# carry_in $end
$var wire 2 <# opcode_in [1:0] $end
$var reg 1 =# carry_out $end
$var reg 1 ># overflow_out $end
$var reg 16 ?# q_out [15:0] $end
$upscope $end
$upscope $end
$upscope $end
$scope module regs $end
$var wire 8 @# CCR_in [7:0] $end
$var wire 8 A# CCR_o [7:0] $end
$var wire 1 B# clear_e $end
$var wire 1 0 clk_in $end
$var wire 16 C# data_w [15:0] $end
$var wire 1 D# dec_su $end
$var wire 16 E# ea_reg_post [15:0] $end
$var wire 16 F# eamem_addr [15:0] $end
$var wire 16 G# eamem_addr_o [15:0] $end
$var wire 8 H# eapostbyte [7:0] $end
$var wire 4 I# exg_dest_r [3:0] $end
$var wire 1 J# inc_pc $end
$var wire 1 K# inc_su $end
$var wire 16 L# left [15:0] $end
$var wire 16 M# new_pc [15:0] $end
$var wire 16 N# offset16 [15:0] $end
$var wire 4 O# path_left_addr [3:0] $end
$var wire 4 P# path_right_addr [3:0] $end
$var wire 16 Q# pc_plus_1 [15:0] $end
$var wire 8 R# reg_dp [7:0] $end
$var wire 16 S# reg_pc [15:0] $end
$var wire 16 T# reg_su [15:0] $end
$var wire 16 U# right [15:0] $end
$var wire 4 V# right_reg [3:0] $end
$var wire 1 W# set_e $end
$var wire 1 R use_s $end
$var wire 1 X# write_exg $end
$var wire 1 Y# write_flags $end
$var wire 1 Z# write_pc $end
$var wire 1 [# write_post $end
$var wire 1 \# write_reg $end
$var wire 4 ]# write_reg_addr [3:0] $end
$var wire 1 ^# write_tfr $end
$var reg 8 _# ACCA [7:0] $end
$var reg 8 `# ACCB [7:0] $end
$var reg 8 a# DP [7:0] $end
$var reg 16 b# IX [15:0] $end
$var reg 16 c# IY [15:0] $end
$var reg 16 d# PC [15:0] $end
$var reg 16 e# SS [15:0] $end
$var reg 16 f# SU [15:0] $end
$var reg 1 g# cff $end
$var reg 1 h# eflag $end
$var reg 1 i# fflag $end
$var reg 1 j# hflag $end
$var reg 1 k# intff $end
$var reg 1 l# nff $end
$var reg 16 m# path_left_data [15:0] $end
$var reg 16 n# path_right_data [15:0] $end
$var reg 1 o# vff $end
$var reg 1 p# zff $end
$scope module ea $end
$var wire 8 q# acca [7:0] $end
$var wire 8 r# accb [7:0] $end
$var wire 16 s# ea_reg_post_o [15:0] $end
$var wire 16 t# eamem_addr_o [15:0] $end
$var wire 8 u# eapostbyte [7:0] $end
$var wire 16 v# ix [15:0] $end
$var wire 16 w# iy [15:0] $end
$var wire 16 x# offset16 [15:0] $end
$var wire 16 y# pc [15:0] $end
$var wire 16 z# s [15:0] $end
$var wire 16 {# u [15:0] $end
$var reg 16 |# ea_reg [15:0] $end
$var reg 16 }# ea_reg_post [15:0] $end
$var reg 16 ~# eamem_addr [15:0] $end
$upscope $end
$upscope $end
$scope module decs $end
$var wire 5 !$ alu_opcode [4:0] $end
$var wire 1 0 clk_in $end
$var wire 1 T dest_flags_o $end
$var wire 2 "$ dest_memtype_o [1:0] $end
$var wire 3 #$ mode [2:0] $end
$var wire 8 $$ opcode [7:0] $end
$var wire 1 M operand_read_o $end
$var wire 1 N operand_write_o $end
$var wire 1 %$ page2_valid $end
$var wire 1 &$ page3_valid $end
$var wire 2 '$ path_left_memtype_o [1:0] $end
$var wire 2 ($ path_right_memtype_o [1:0] $end
$var wire 8 )$ postbyte0 [7:0] $end
$var wire 1 B result_size $end
$var wire 1 Q source_size $end
$var wire 1 R use_s $end
$var wire 1 S write_dest $end
$var reg 5 *$ aop [4:0] $end
$var reg 2 +$ dest_memtype_lo [1:0] $end
$var reg 4 ,$ dest_reg_lo [3:0] $end
$var reg 2 -$ dm [1:0] $end
$var reg 4 .$ dr [3:0] $end
$var reg 2 /$ lm [1:0] $end
$var reg 4 0$ lr [3:0] $end
$var reg 3 1$ mo [2:0] $end
$var reg 1 2$ op_CWAI $end
$var reg 1 3$ op_EXG $end
$var reg 1 4$ op_JMP $end
$var reg 1 5$ op_JSR $end
$var reg 1 6$ op_LEA $end
$var reg 1 7$ op_MUL $end
$var reg 1 8$ op_PULL $end
$var reg 1 9$ op_PUSH $end
$var reg 1 :$ op_RTI $end
$var reg 1 ;$ op_RTS $end
$var reg 1 <$ op_SWI $end
$var reg 1 =$ op_SYNC $end
$var reg 1 >$ op_TFR $end
$var reg 1 ?$ p2 $end
$var reg 1 @$ p3 $end
$var reg 4 A$ path_left_addr_lo [3:0] $end
$var reg 2 B$ path_left_memtype_lo [1:0] $end
$var reg 4 C$ path_right_addr_lo [3:0] $end
$var reg 2 D$ path_right_memtype_lo [1:0] $end
$var reg 2 E$ rm [1:0] $end
$var reg 4 F$ rr [3:0] $end
$var reg 1 G$ ss $end
$var reg 1 H$ sz $end
$upscope $end
$scope module dec_ea $end
$var wire 1 E ea_is_indirect_o $end
$var wire 8 I$ eapostbyte [7:0] $end
$var reg 1 J$ ea_ofs16_o $end
$var reg 1 K$ ea_ofs5_o $end
$var reg 1 L$ ea_ofs8_o $end
$var reg 1 M$ ea_write_back_o $end
$var reg 4 N$ eabase_o [3:0] $end
$var reg 4 O$ eaindex_o [3:0] $end
$upscope $end
$scope module test_cond $end
$var wire 8 P$ CCR [7:0] $end
$var wire 8 Q$ op [7:0] $end
$var wire 8 R$ opcode [7:0] $end
$var wire 1 %$ page2_valid $end
$var wire 8 S$ postbyte0 [7:0] $end
$var reg 1 T$ cond_taken $end
$upscope $end
$upscope $end
$scope module imem $end
$var wire 16 U$ addr [15:0] $end
$var wire 8 V$ data_i [7:0] $end
$var wire 8 W$ data_o [7:0] $end
$var wire 8 X$ mem0 [7:0] $end
$var wire 8 Y$ mem1 [7:0] $end
$var wire 8 Z$ mem2 [7:0] $end
$var wire 8 [$ mem3 [7:0] $end
$var wire 1 \$ oe $end
$var wire 1 ]$ we $end
$var reg 8 ^$ latecheddata [7:0] $end
$upscope $end
$upscope $end
$enddefinitions $end
#0
$dumpvars
bx ^$
1]$
1\$
b11111111 [$
b0 Z$
b11001110 Y$
b10000 X$
bx W$
bx V$
bx U$
0T$
bx S$
bx R$
bx Q$
b0 P$
bx O$
bx N$
xM$
xL$
xK$
xJ$
bx I$
xH$
xG$
bx F$
bx E$
bx D$
bx C$
bx B$
bx A$
x@$
x?$
x>$
x=$
x<$
x;$
x:$
x9$
x8$
x7$
x6$
x5$
x4$
x3$
x2$
bx 1$
bx 0$
bx /$
bx .$
bx -$
bx ,$
bx +$
bx *$
bx )$
bx ($
bx '$
x&$
x%$
bx $$
bx #$
bx "$
bx !$
bx ~#
bx }#
bx |#
b111000000000 {#
b111100000000 z#
b1111111111111110 y#
bx x#
b1010010101011010 w#
b0 v#
bx u#
bx t#
bx s#
bx r#
bx q#
0p#
0o#
b1111111111111111 n#
b1111111111111111 m#
0l#
0k#
0j#
0i#
0h#
0g#
b111000000000 f#
b111100000000 e#
b1111111111111110 d#
b1010010101011010 c#
b0 b#
b0 a#
bx `#
bx _#
0^#
bx ]#
0\#
x[#
xZ#
0Y#
0X#
xW#
bx V#
b1111111111111111 U#
b111x00000000 T#
b1111111111111110 S#
b0 R#
b1111111111111111 Q#
bx P#
bx O#
bx N#
bx M#
b0 L#
xK#
xJ#
bx I#
bx H#
bx G#
bx F#
bx E#
xD#
b0 C#
xB#
b0 A#
b100 @#
bx ?#
x>#
x=#
bx <#
bx ;#
bx :#
19#
08#
x7#
x6#
b0 5#
b0 4#
03#
02#
b100 1#
00#
0/#
bx .#
bx -#
0,#
0+#
bx *#
x)#
bx (#
x'#
bx &#
b0 %#
bx $#
0##
bx "#
bx !#
bx ~"
bx }"
x|"
x{"
xz"
bx y"
0x"
bx w"
bx v"
bx u"
bx t"
bx s"
bx r"
0q"
b0 p"
b0 o"
0n"
0m"
bx l"
b100 k"
0j"
xi"
0h"
0g"
0f"
bx e"
xd"
bx c"
bx b"
bx a"
0`"
bx _"
0^"
bx ]"
bx \"
bx ["
bx Z"
xY"
xX"
xW"
0V"
bx U"
xT"
bx S"
xR"
xQ"
bx P"
b0 O"
bx N"
bx M"
bx L"
bx K"
b11111111 J"
bx I"
bx H"
bx G"
b0 F"
b100 E"
b0 D"
b0 C"
bx B"
bx A"
b100 @"
b100 ?"
bx >"
b1111111111111111 ="
b0 <"
b0 ;"
bx :"
bx 9"
bx 8"
07"
x6"
x5"
04"
03"
x2"
b0 1"
b0 0"
b0 /"
bx ."
bx -"
bx ,"
x+"
x*"
bx )"
bx ("
bx '"
bx &"
0%"
bx $"
bx #"
b0 ""
0!"
bx ~
x}
x|
x{
xz
bx y
bx x
xw
0v
0u
bx t
bx s
xr
bx q
b0 p
bx o
b1111111111111111 n
bx m
b111x00000000 l
b1111111111111111 k
b1111111111111110 j
b1111111111111111 i
bx h
b0 g
b0 f
xe
xd
xc
xb
xa
x`
x_
x^
x]
x\
x[
xZ
xY
1X
0W
0V
0U
xT
xS
xR
xQ
bx P
bx O
xN
xM
bx L
bx K
bx J
xI
xH
xG
xF
xE
bx D
0C
xB
bx A
bx @
bx ?
bx >
bx =
bx <
bx ;
0:
z9
b0 8
17
16
15
14
13
bx 2
bx 1
00
bx /
b0 .
b100 -
1,
1+
1*
1)
0(
0'
0&
bx %
bx $
bx #
bx "
bx !
$end
#5
b0 \"
0X"
0i"
0W"
1Y"
1d"
b0 Z"
b0 ["
b11111111 $#
b11111111 e"
b101 ]"
b11111111 P"
b11111111 r"
b11111111 v"
b11111111 ~"
b1 b"
b1 a"
07#
06#
b1111111111111111 G"
b1111111111111111 &#
b1111111111111111 :#
1(
10
#10
0(
00
#15
1(
10
#20
0(
00
#25
1(
10
#30
0(
00
#35
1(
10
#40
0(
00
#45
1(
10
#46
0,
0X
07
#50
0(
00
#55
0T
b111100000000 l
b111100000000 T#
0Q
0M
0B
0@$
0?$
05$
0\
04$
0[
06$
0]
08$
0_
09$
0`
0<$
0c
07$
0^
02$
0Y
0:$
0a
0;$
0b
0>$
0e
03$
0Z
0=$
0d
0H$
1G$
1R
b0 *$
b0 A
b0 A"
b0 !$
b0 1$
b0 O
b0 #$
b0 -$
0N
b0 D
b0 "$
b0 E$
b0 P
b0 ($
b0 /$
b0 L
b0 '$
b1111 .$
0S
b1111 F$
b1111 0$
b10101 )"
b10101 $$
b10101 R$
b1000 8"
b11111110 y
b11111111 x
b110110 ;"
1z
1(
10
#60
0(
00
#65
b1111111 $#
b1111111 e"
b11111111 K"
b0 t"
b0 y"
b0 "#
b0 <#
b1111111111111111 o
b1111111111111111 >"
b1111 q
b1111 ]#
b1111 m
b1111 O#
b0 I"
b0 c"
b0 -#
b0 +$
b0 ;
b0 B$
b0 >
b0 D$
b0 @
b1111 ,$
b1111 <
b1111 A$
b1111 =
b1111 C$
b1111 ?
b1111 P#
0z
0{
b110111 ;"
b1111111111111110 s
b1111111111111110 !
b1111111111111110 /
b1111111111111110 U$
b1111111111111110 "
1(
10
#70
0(
00
#75
b0 ^$
b0 #
b0 1
b0 W$
1{"
1R"
0|"
0T"
1z"
1Q"
b11111110 }"
b11111110 S"
b11111111 u"
b11111111 _"
b11111111 l"
b11111111 w"
b11111111 U"
b11111111 s"
b11111111 !#
0>#
0)#
1=#
1'#
b1111111111111110 ?#
b1111111111111110 (#
b1111111111111111 H"
b1111111111111111 *#
b1111111111111111 ;#
b111011110001 M"
b111000 ;"
1u
0\$
1&
1(
10
#80
0(
00
#85
b1111111111111111 o
b1111111111111111 >"
b0xxxxxxxx &"
b0xxxxxxxx M#
b1111111000000001 N"
b1111111000000001 B"
b1111111000000001 L"
b1111111000000001 .#
b1111111111111111 s
b1111111111111111 !
b1111111111111111 /
b1111111111111111 U$
b1111111111111111 "
b111010 ;"
b0 #"
0u
1\$
0&
1(
10
#90
0(
00
#95
b111011 ;"
1u
0\$
1&
1(
10
#100
0(
00
#105
b101 V#
b1111111111111111 o
b1111111111111111 >"
b0 &"
b0 M#
b1000 ;"
15"
1Z#
b0 $"
0u
1\$
0&
1(
10
#110
0(
00
#115
bx V#
bx1 U#
bx ~#
bx F#
bx t#
bx h
bx G#
b0 d#
b1 Q#
b0 y#
b0 j
b0 S#
b1001 ;"
05"
0Z#
1(
10
#120
0(
00
#125
b101 V#
b1 U#
b10010 Q$
1|
1J#
b0 s
b0 !
b0 /
b0 U$
b0 "
b1 ""
b1111 -"
b10010 )"
b10010 $$
b10010 R$
0+"
0&$
0*"
0%$
1(
10
#130
0(
00
#135
b10000 ^$
b10000 #
b10000 1
b10000 W$
bx V#
bx ~#
bx F#
bx t#
bx h
bx G#
b1111111111111111 U#
b1 d#
b10 Q#
b1 y#
b1 j
b1 S#
b10 ""
1u
0\$
1&
0|
0J#
1(
10
#140
0(
00
#145
1?$
bx Q$
b11 ""
1*"
1%$
b10000 )"
b10000 $$
b10000 R$
0u
1\$
0&
1(
10
#150
0(
00
#155
b101 V#
b10 U#
b100 ""
1|
1J#
b1 s
b1 !
b1 /
b1 U$
b1 "
1(
10
#160
0(
00
#165
b11001110 ^$
b11001110 #
b11001110 1
b11001110 W$
bx V#
bx ~#
bx F#
bx t#
bx h
bx G#
b1111111111111111 U#
b10 d#
b11 Q#
b10 y#
b10 j
b10 S#
b101 ""
1u
0\$
1&
0|
0J#
1(
10
#170
0(
00
#175
1T
1Q
b0 K"
b1100 V#
1B
b0 o
b0 >"
b1100 I#
b100 *$
b100 A
b100 A"
b100 !$
b100 .$
1S
1H$
b1 1$
b1 O
b1 #$
1?$
b11001110 Q$
b1111 ;"
b11001110 ,"
b11001110 )$
b11001110 S$
b0 ""
0u
1\$
0&
1(
10
#180
0(
00
#185
0{"
0R"
0z"
0Q"
b11111111 }"
b11111111 S"
b100 k"
b100 @"
b0 p"
b0 D"
b11111111 $#
b11111111 e"
b0 u"
b0 _"
b0 l"
b0 w"
b0 o"
b100 "#
b0 U"
b0 s"
b0 !#
0=#
0'#
b1111111111111111 ?#
b1111111111111111 (#
b100 q
b100 ]#
b111011110001 N"
b111011110001 B"
b111011110001 L"
b111011110001 .#
b0 M"
b100 I"
b100 c"
b100 -#
b0 H"
b0 *#
b0 ;#
b100 ,$
b100 <
b10001 :"
b110000 ;"
1(
10
#190
0(
00
#195
b101 V#
b11 U#
b0 N"
b0 B"
b0 L"
b0 .#
1|
1J#
b110001 ;"
b10 s
b10 !
b10 /
b10 U$
b10 "
1(
10
#200
0(
00
#205
b0 ^$
b0 #
b0 1
b0 W$
b1100 V#
bx ~#
bx F#
bx t#
bx h
bx G#
b1111111111111111 U#
b11 d#
b100 Q#
b11 y#
b11 j
b11 S#
b110010 ;"
1u
0\$
1&
0|
0J#
1(
10
#210
0(
00
#215
b110011 ;"
0u
1\$
0&
1(
10
#220
0(
00
#225
b101 V#
b100 U#
1|
1J#
b110100 ;"
b11 s
b11 !
b11 /
b11 U$
b11 "
1(
10
#230
0(
00
#235
b11111111 ^$
b11111111 #
b11111111 1
b11111111 W$
b1100 V#
bx ~#
bx F#
bx t#
bx h
bx G#
b1111111111111111 U#
b100 d#
b101 Q#
b100 y#
b100 j
b100 S#
b110101 ;"
1u
0\$
1&
0|
0J#
1(
10
#240
0(
00
#245
b11111111 K"
b11111111 o
b11111111 >"
b11111111 &"
b11111111 M#
b10001 ;"
b11111111 $"
0u
1\$
0&
1(
10
#250
0(
00
#255
b11111111 L#
b1000 k"
b1000 @"
b11111111 p"
b11111111 D"
b11111111 p
b11111111 C#
b11111111 o"
1{"
1R"
1z"
1Q"
b11111110 }"
b11111110 S"
b0 E"
b0 -
b0 @#
b11111111 F"
b11111111 .
b11111111 u"
b11111111 _"
b11111111 l"
b11111111 w"
b0 1#
b0 ?"
b11111111 5#
b11111111 C"
09#
b11111111 U"
b11111111 s"
b11111111 !#
1=#
1'#
b11111110 ?#
b11111110 (#
b11111111 4#
1Y#
b11111111 H"
b11111111 *#
b11111111 ;#
b1110111100010000 N"
b1110111100010000 B"
b1110111100010000 L"
b1110111100010000 .#
b111011110001 M"
13"
1\#
b10010 ;"
1(
10
#260
0(
00
#265
b11111111 4#
b11111111 l
b11111111 T#
0Y#
b1111111000000001 N"
b1111111000000001 B"
b1111111000000001 L"
b1111111000000001 .#
b11111111 e#
b11111111 z#
06"
0[#
b1001 ;"
b1001 8"
03"
0\#
1(
10
#270
0(
00
#275
0Q
0T
b1000 E"
b1000 -
b1000 @#
b101 V#
b1111111111111111 o
b1111111111111111 >"
0B
b101 U#
0?$
0H$
b0 *$
b0 A
b0 A"
b0 !$
b0 1$
b0 O
b0 #$
b1111 .$
0S
b10010 Q$
1|
1J#
b100 s
b100 !
b100 /
b100 U$
b100 "
b1 ""
b10010 )"
b10010 $$
b10010 R$
0*"
0%$
1(
10
#280
0(
00
#285
b11100 ^$
b11100 #
b11100 1
b11100 W$
b0 L#
b0 p
b0 C#
b100 E"
b100 -
b100 @#
b0 F"
b0 .
b100 k"
b100 @"
b0 p"
b0 D"
b1111111 $#
b1111111 e"
b100 1#
b100 ?"
b0 5#
b0 C"
b1100 V#
19#
b0 o"
b0 "#
b1111111111111110 ?#
b1111111111111110 (#
b0 4#
bx ~#
bx F#
bx t#
bx h
bx G#
b1111 q
b1111 ]#
b1111111111111111 U#
b0 I"
b0 c"
b0 -#
b1111111111111111 H"
b1111111111111111 *#
b1111111111111111 ;#
b101 d#
b110 Q#
b101 y#
b101 j
b101 S#
b1111 ,$
b1111 <
b10 ""
1u
0\$
1&
0|
0J#
1(
10
#290
0(
00
#295
b11111111 o
b11111111 >"
b101 *$
b101 A
b101 A"
b101 !$
b1010 .$
1S
b1010 0$
b1 1$
b1 O
b1 #$
b11100 Q$
b0 ""
b1111 ;"
b11100 )"
b11100 $$
b11100 R$
0u
1\$
0&
1(
10
#300
0(
00
#305
b11111111 L#
b11111111 p
b11111111 C#
b0 J"
b1000 E"
b1000 -
b1000 @#
b11111111 F"
b11111111 .
b0 n
b0 ="
b1000 k"
b1000 @"
b11111111 p"
b11111111 D"
0{"
0R"
0z"
0Q"
b0 }"
b0 S"
b11111111 $#
b11111111 e"
0=#
0'#
b0 m#
b0 i
b11111111 o"
b1 t"
b1 y"
b101 "#
b1 <#
b1111111100000000 ?#
b1111111100000000 (#
b1010 q
b1010 ]#
b1010 m
b1010 O#
b101 I"
b101 c"
b101 -#
b11111111 H"
b11111111 *#
b11111111 ;#
b1010 ,$
b1010 <
b1010 A$
b1010 =
b110011 ;"
1(
10
#310
0(
00
#315
b0 L#
b0 p
b0 C#
b100 E"
b100 -
b100 @#
b0 F"
b0 .
b100 k"
b100 @"
b0 p"
b0 D"
1W"
0Y"
0d"
b11111111 Z"
b11111111 ["
b0 $#
b0 e"
1z"
1Q"
b1 }"
b1 S"
b0 u"
b0 _"
b0 o"
b0 ]"
b101 V#
b0 P"
b0 r"
b0 v"
b0 ~"
b0 b"
b0 a"
1=#
1'#
b1111111100000001 ?#
b1111111100000001 (#
b110 U#
b0 G"
b0 &#
b0 :#
b111011110001 N"
b111011110001 B"
b111011110001 L"
b111011110001 .#
b0 M"
1|
1J#
b110100 ;"
b101 s
b101 !
b101 /
b101 U$
b101 "
1(
10
#320
0(
00
#325
b10101111 ^$
b10101111 #
b10101111 1
b10101111 W$
b1100 V#
bx ~#
bx F#
bx t#
bx h
bx G#
b1111111111111111 U#
b0 N"
b0 B"
b0 L"
b0 .#
b110 d#
b111 Q#
b110 y#
b110 j
b110 S#
b110101 ;"
1u
0\$
1&
0|
0J#
1(
10
#330
0(
00
#335
b10101111 K"
b10101111 o
b10101111 >"
b10101111 &"
b10101111 M#
b10001 ;"
b10101111 $"
0u
1\$
0&
1(
10
#340
0(
00
#345
b1010001 }"
b1010001 S"
b10101111 l"
b10101111 w"
b10101111 U"
b10101111 s"
b10101111 !#
b1111111101010001 ?#
b1111111101010001 (#
b10101111 H"
b10101111 *#
b10101111 ;#
13"
1\#
b10010 ;"
1(
10
#350
0(
00
#355
b1001 ;"
03"
0\#
1(
10
#360
0(
00
#365
b11111111 K"
b101 V#
b1111111111111111 o
b1111111111111111 >"
b111 U#
b0 *$
b0 A
b0 A"
b0 !$
b0 1$
b0 O
b0 #$
b1111 .$
0S
b1111 0$
0T
b10010 Q$
1|
1J#
b110 s
b110 !
b110 /
b110 U$
b110 "
b1 ""
b10010 )"
b10010 $$
b10010 R$
1(
10
#370
0(
00
